waveform.vcd
$date
	Fri Jul 03 03:36:01 2026
$end
$version
	Icarus Verilog
$end
$timescale
	1ps
$end
$scope module tb_digital_safe_lock $end
$var wire 1 ! LCD_ON $end
$var wire 1 " LCD_RW $end
$var wire 18 # LEDR [17:0] $end
$var wire 9 $ LEDG [8:0] $end
$var wire 1 % LCD_RS $end
$var wire 1 & LCD_EN $end
$var wire 8 ' LCD_DATA [7:0] $end
$var wire 7 ( HEX2 [6:0] $end
$var wire 7 ) HEX1 [6:0] $end
$var wire 7 * HEX0 [6:0] $end
$var reg 1 + CLOCK_50 $end
$var reg 4 , KEY [3:0] $end
$var reg 18 - SW [17:0] $end
$scope module dut $end
$var wire 1 + CLOCK_50 $end
$var wire 1 . EEP_I2C_SCLK $end
$var wire 1 / EEP_I2C_SDAT $end
$var wire 4 0 KEY [3:0] $end
$var wire 1 ! LCD_ON $end
$var wire 1 " LCD_RW $end
$var wire 18 1 SW [17:0] $end
$var wire 1 2 sram_wr_en $end
$var wire 1 3 sram_ready $end
$var wire 1 4 sram_rd_en $end
$var wire 16 5 sram_data_to_ctrl [15:0] $end
$var wire 16 6 sram_data_from_ctrl [15:0] $end
$var wire 19 7 sram_addr_internal [18:0] $end
$var wire 1 8 rst_n $end
$var wire 1 9 enter_tick $end
$var wire 1 : enter_btn_state $end
$var wire 3 ; display_state [2:0] $end
$var wire 1 < change_tick $end
$var wire 1 = change_btn_state $end
$var wire 18 > LEDR [17:0] $end
$var wire 9 ? LEDG [8:0] $end
$var wire 1 % LCD_RS $end
$var wire 1 & LCD_EN $end
$var wire 8 @ LCD_DATA [7:0] $end
$var wire 7 A HEX2 [6:0] $end
$var wire 7 B HEX1 [6:0] $end
$var wire 7 C HEX0 [6:0] $end
$var parameter 20 D DB_DELAY $end
$var parameter 28 E TIMER_CYCLES $end
$var parameter 1 F USE_EEPROM $end
$scope begin gen_internal_ram $end
$scope module int_ram $end
$var wire 19 G i_addr [18:0] $end
$var wire 1 + i_clk $end
$var wire 16 H i_data [15:0] $end
$var wire 1 4 i_rd_en $end
$var wire 1 8 i_rst_n $end
$var wire 1 2 i_wr_en $end
$var parameter 2 I DONE $end
$var parameter 2 J IDLE $end
$var parameter 2 K WAIT $end
$var reg 16 L memory [15:0] $end
$var reg 16 M o_data [15:0] $end
$var reg 1 3 o_ready $end
$var reg 2 N state [1:0] $end
$upscope $end
$upscope $end
$scope module db_change $end
$var wire 1 O i_btn $end
$var wire 1 + i_clk $end
$var wire 1 8 i_rst_n $end
$var wire 1 < o_btn_tick $end
$var parameter 20 P DELAY_CYCLES $end
$var reg 1 Q btn_state_prev $end
$var reg 1 R btn_sync_0 $end
$var reg 1 S btn_sync_1 $end
$var reg 20 T counter [19:0] $end
$var reg 1 = o_btn_state $end
$upscope $end
$scope module db_enter $end
$var wire 1 U i_btn $end
$var wire 1 + i_clk $end
$var wire 1 8 i_rst_n $end
$var wire 1 9 o_btn_tick $end
$var parameter 20 V DELAY_CYCLES $end
$var reg 1 W btn_state_prev $end
$var reg 1 X btn_sync_0 $end
$var reg 1 Y btn_sync_1 $end
$var reg 20 Z counter [19:0] $end
$var reg 1 : o_btn_state $end
$upscope $end
$scope module fsm_inst $end
$var wire 1 < i_change_tick $end
$var wire 1 + i_clk $end
$var wire 1 9 i_enter_tick $end
$var wire 1 8 i_rst_n $end
$var wire 8 [ i_sw [7:0] $end
$var wire 1 \ timer_en $end
$var wire 1 ] timer_done $end
$var wire 1 3 i_sram_ready $end
$var wire 16 ^ i_sram_data [15:0] $end
$var parameter 4 _ S_CHG_DONE $end
$var parameter 4 ` S_ERR $end
$var parameter 4 a S_IDLE $end
$var parameter 4 b S_INIT_RD $end
$var parameter 4 c S_INIT_WAIT $end
$var parameter 4 d S_INIT_WR $end
$var parameter 4 e S_READ_CHECK $end
$var parameter 4 f S_UNLOCKED $end
$var parameter 4 g S_WRITE_CHG $end
$var parameter 28 h TIMER_CYCLES $end
$var reg 3 i o_display_state [2:0] $end
$var reg 1 j o_ledg $end
$var reg 1 k o_ledr $end
$var reg 19 l o_sram_addr [18:0] $end
$var reg 16 m o_sram_data_out [15:0] $end
$var reg 1 4 o_sram_rd_en $end
$var reg 1 2 o_sram_wr_en $end
$var reg 4 n state [3:0] $end
$var reg 28 o timer [27:0] $end
$upscope $end
$scope module hex_inst $end
$var wire 3 p i_state [2:0] $end
$var parameter 7 q CHAR_C $end
$var parameter 7 r CHAR_DASH $end
$var parameter 7 s CHAR_E $end
$var parameter 7 t CHAR_O $end
$var parameter 7 u CHAR_P $end
$var parameter 7 v CHAR_g $end
$var parameter 7 w CHAR_h $end
$var parameter 7 x CHAR_n $end
$var parameter 7 y CHAR_r $end
$var reg 7 z o_hex0 [6:0] $end
$var reg 7 { o_hex1 [6:0] $end
$var reg 7 | o_hex2 [6:0] $end
$upscope $end
$scope module lcd_inst $end
$var wire 1 + i_clk $end
$var wire 1 8 i_rst_n $end
$var wire 3 } i_state [2:0] $end
$var wire 1 " o_lcd_rw $end
$var parameter 32 ~ CLK_FREQ $end
$var parameter 32 !" DELAY_20MS $end
$var parameter 32 "" DELAY_2MS $end
$var parameter 32 #" DELAY_50US $end
$var parameter 3 $" SEQ_DELAY $end
$var parameter 3 %" SEQ_DONE $end
$var parameter 3 &" SEQ_EN_HI $end
$var parameter 3 '" SEQ_EN_LO $end
$var parameter 3 (" SEQ_SETUP $end
$var parameter 4 )" S_INIT_1 $end
$var parameter 4 *" S_INIT_2 $end
$var parameter 4 +" S_INIT_3 $end
$var parameter 4 ," S_INIT_4 $end
$var parameter 4 -" S_LINE1 $end
$var parameter 4 ." S_LINE2 $end
$var parameter 4 /" S_PRINT1 $end
$var parameter 4 0" S_PRINT2 $end
$var parameter 4 1" S_PWR_ON $end
$var parameter 4 2" S_WAIT $end
$var reg 5 3" char_index [4:0] $end
$var reg 3 4" current_fsm_state [2:0] $end
$var reg 4 5" next_state_after_delay [3:0] $end
$var reg 8 6" o_lcd_data [7:0] $end
$var reg 1 & o_lcd_en $end
$var reg 1 % o_lcd_rs $end
$var reg 3 7" seq [2:0] $end
$var reg 4 8" state [3:0] $end
$var reg 25 9" timer [24:0] $end
$var integer 32 :" current_delay [31:0] $end
$upscope $end
$upscope $end
$scope task check_result $end
$var reg 1 ;" exp_ledg $end
$var reg 1 <" exp_ledr $end
$var reg 8 =" test_id [7:0] $end
$upscope $end
$scope task enter_password $end
$var reg 2 >" btn_type [1:0] $end
$var reg 8 ?" pass [7:0] $end
$upscope $end
$scope task reset_system $end
$upscope $end
$scope task wait_for_display_timer $end
$upscope $end
$upscope $end
$enddefinitions $end
$comment Show the parameter values. $end
$dumpall
b1001 2"
b0 1"
b1000 0"
b110 /"
b111 ."
b101 -"
b100 ,"
b11 +"
b10 *"
b1 )"
b0 ("
b10 '"
b1 &"
b100 %"
b11 $"
b100111000100 #"
b11000011010100000 ""
b11110100001001000000 !"
b10111110101111000010000000 ~
b101111 y
b101011 x
b1011 w
b10000 v
b1100 u
b1000000 t
b110 s
b111111 r
b1000110 q
b10100 h
b1000 g
b100 f
b11 e
b110 d
b1 c
b0 b
b10 a
b101 `
b111 _
b1 V
b1 P
b1 K
b0 J
b10 I
0F
b10100 E
b1 D
$end
#0
$dumpvars
bx ?"
bx >"
bx ="
x<"
x;"
bx :"
b0 9"
b0 8"
b0 7"
b0 6"
bx 5"
b0 4"
b0 3"
b0 }
b111111 |
b111111 {
b111111 z
b0 p
b0 o
b0 n
b0 m
b0 l
1k
0j
b0 i
b0 ^
0]
0\
b0 [
b0 Z
1Y
1X
1W
1U
b0 T
1S
1R
1Q
1O
b0 N
b0 M
b0 L
b0 H
b0 G
b111111 C
b111111 B
b111111 A
b0 @
b0 ?
b1 >
1=
0<
b0 ;
1:
09
08
b0 7
b0 6
b0 5
04
03
02
b0 1
b1110 0
z/
1.
b0 -
b1110 ,
0+
b111111 *
b111111 )
b111111 (
b0 '
0&
0%
b0 $
b1 #
0"
1!
$end
#10000
1+
#20000
0+
#30000
1+
#40000
0+
#50000
1+
#60000
0+
#70000
1+
#80000
0+
#90000
1+
#100000
18
0+
b1111 ,
b1111 0
#110000
b1 n
14
b11 7"
b1 5"
b11110100001001000000 :"
1+
#120000
0+
#130000
b1 9"
b1 N
1+
#140000
0+
#150000
b10 N
13
b10 9"
1+
#160000
0+
#170000
b11 9"
b10 n
04
1+
#180000
0+
#190000
b0 N
03
b100 9"
1+
#200000
0+
#210000
b101 9"
1+
#220000
0+
#230000
b110 9"
1+
#240000
0+
#250000
b111 9"
1+
#260000
0+
#270000
b1000 9"
1+
#280000
0+
#290000
b1001 9"
1+
#300000
0U
0+
b1101 ,
b1101 0
b1 >"
b0 ?"
#310000
0X
b1010 9"
1+
#320000
0+
#330000
b1011 9"
0Y
1+
#340000
1U
0+
b1111 ,
b1111 0
#350000
19
1X
0:
b0 Z
b1100 9"
1+
#360000
0+
#370000
09
b1101 9"
b11 n
14
0W
1Y
1+
#380000
0+
#390000
b1 N
1:
b0 Z
b1110 9"
1+
#400000
0+
#410000
b1111 9"
1W
b10 N
13
1+
#420000
0+
#430000
04
b100 n
b10000 9"
1+
#440000
0+
#450000
b101011 *
b101011 C
b101011 z
b1100 )
b1100 B
b1100 {
b1000000 (
b1000000 A
b1000000 |
b1 $
b1 ?
b0 #
b0 >
b10001 9"
b1 ;
b1 i
b1 p
b1 }
1j
0k
b0 N
03
1+
#460000
0+
#470000
b10010 9"
1+
#480000
0+
#490000
b10011 9"
1+
#500000
0+
#510000
b10100 9"
1+
#520000
0+
#530000
b10101 9"
1+
#540000
0O
b10100101 [
0+
b1011 ,
b1011 0
b10100101 -
b10100101 1
b10 >"
b10100101 ?"
b1 ="
0<"
1;"
#550000
0R
b10110 9"
1+
#560000
0+
#570000
b10111 9"
0S
1+
#580000
1O
0+
b1111 ,
b1111 0
#590000
1<
1R
0=
b0 T
b11000 9"
1+
#600000
0+
#610000
0<
b11001 9"
b1000 n
b10100101 5
b10100101 H
b10100101 m
12
0Q
1S
1+
#620000
0+
#630000
b1 N
b10100101 L
1=
b0 T
b11010 9"
1+
#640000
0+
#650000
b11011 9"
1Q
b10 N
13
1+
#660000
0+
#670000
1\
b111 n
02
b11100 9"
1+
#680000
0+
#690000
b10000 *
b10000 C
b10000 z
b1011 )
b1011 B
b1011 {
b1000110 (
b1000110 A
b1000110 |
b11101 9"
b11 ;
b11 i
b11 p
b11 }
b1 o
b0 N
03
1+
#700000
0+
#710000
b10 o
b11110 9"
1+
#720000
0+
#730000
b11111 9"
b11 o
1+
#740000
0+
#750000
b100 o
b100000 9"
1+
#760000
0+
#770000
b100001 9"
b101 o
1+
#780000
0+
#790000
b110 o
b100010 9"
1+
#800000
0+
#810000
b100011 9"
b111 o
1+
#820000
0+
#830000
b1000 o
b100100 9"
1+
#840000
0+
#850000
b100101 9"
b1001 o
1+
#860000
0+
#870000
b1010 o
b100110 9"
1+
#880000
0+
#890000
b100111 9"
b1011 o
1+
#900000
0+
#910000
b1100 o
b101000 9"
1+
#920000
0+
#930000
b101001 9"
b1101 o
1+
#940000
0+
#950000
b1110 o
b101010 9"
1+
#960000
0+
#970000
b101011 9"
b1111 o
1+
#980000
0+
#990000
b10000 o
b101100 9"
1+
#1000000
0+
#1010000
b101101 9"
b10001 o
1+
#1020000
0+
#1030000
b10010 o
b101110 9"
1+
#1040000
0+
#1050000
b101111 9"
b10011 o
1+
#1060000
0+
#1070000
1]
b10100 o
b110000 9"
1+
#1080000
0+
#1090000
0\
b110001 9"
b100 n
1+
#1100000
0+
#1110000
b101011 *
b101011 C
b101011 z
b1100 )
b1100 B
b1100 {
b1000000 (
b1000000 A
b1000000 |
0]
b0 o
b1 ;
b1 i
b1 p
b1 }
b110010 9"
1+
#1120000
0+
#1130000
b110011 9"
1+
#1140000
0+
#1150000
b110100 9"
1+
#1160000
0+
#1170000
b110101 9"
1+
#1180000
0+
#1190000
b110110 9"
1+
#1200000
0+
#1210000
b110111 9"
1+
#1220000
0+
#1230000
b111000 9"
1+
#1240000
0+
#1250000
b111001 9"
1+
#1260000
0+
#1270000
b111010 9"
1+
#1280000
0+
#1290000
b111011 9"
1+
#1300000
0+
#1310000
b111100 9"
1+
#1320000
0+
#1330000
b111101 9"
1+
#1340000
0+
#1350000
b111110 9"
1+
#1360000
0+
#1370000
b111111 9"
1+
#1380000
0U
0+
b1101 ,
b1101 0
b1 >"
#1390000
0X
b1000000 9"
1+
#1400000
0+
#1410000
b1000001 9"
0Y
1+
#1420000
1U
0+
b1111 ,
b1111 0
#1430000
19
1X
0:
b0 Z
b1000010 9"
1+
#1440000
0+
#1450000
09
b1000011 9"
b10 n
0W
1Y
1+
#1460000
0+
#1470000
b111111 *
b111111 C
b111111 z
b111111 )
b111111 B
b111111 {
b111111 (
b111111 A
b111111 |
b0 $
b0 ?
b1 #
b1 >
1:
b0 Z
b0 ;
b0 i
b0 p
b0 }
0j
1k
b1000100 9"
1+
#1480000
0+
#1490000
b1000101 9"
1W
1+
#1500000
0+
#1510000
b1000110 9"
1+
#1520000
0+
#1530000
b1000111 9"
1+
#1540000
0+
#1550000
b1001000 9"
1+
#1560000
0+
#1570000
b1001001 9"
1+
#1580000
0+
#1590000
b1001010 9"
1+
#1600000
0+
#1610000
b1001011 9"
1+
#1620000
0U
b10001 [
0+
b1101 ,
b1101 0
b10001 -
b10001 1
b10001 ?"
#1630000
0X
b1001100 9"
1+
#1640000
0+
#1650000
b1001101 9"
0Y
1+
#1660000
1U
0+
b1111 ,
b1111 0
#1670000
19
1X
0:
b0 Z
b1001110 9"
1+
#1680000
0+
#1690000
09
b1001111 9"
b11 n
14
0W
1Y
1+
#1700000
0+
#1710000
b1 N
b10100101 6
b10100101 M
b10100101 ^
1:
b0 Z
b1010000 9"
1+
#1720000
0+
#1730000
b1010001 9"
1W
b10 N
13
1+
#1740000
0+
#1750000
1\
04
b101 n
b1010010 9"
1+
#1760000
0+
#1770000
b101111 *
b101111 C
b101111 z
b101111 )
b101111 B
b101111 {
b110 (
b110 A
b110 |
b1010011 9"
b10 ;
b10 i
b10 p
b10 }
b1 o
b0 N
03
1+
#1780000
0+
#1790000
b10 o
b1010100 9"
1+
#1800000
0+
#1810000
b1010101 9"
b11 o
1+
#1820000
0+
#1830000
b100 o
b1010110 9"
1+
#1840000
0+
#1850000
b1010111 9"
b101 o
1+
#1860000
0+
b11 ="
1<"
0;"
#1870000
b110 o
b1011000 9"
1+
#1880000
0+
#1890000
b1011001 9"
b111 o
1+
#1900000
0+
#1910000
b1000 o
b1011010 9"
1+
#1920000
0+
#1930000
b1011011 9"
b1001 o
1+
#1940000
0+
#1950000
b1010 o
b1011100 9"
1+
#1960000
0+
#1970000
b1011101 9"
b1011 o
1+
#1980000
0+
#1990000
b1100 o
b1011110 9"
1+
#2000000
0+
#2010000
b1011111 9"
b1101 o
1+
#2020000
0+
#2030000
b1110 o
b1100000 9"
1+
#2040000
0+
#2050000
b1100001 9"
b1111 o
1+
#2060000
0+
#2070000
b10000 o
b1100010 9"
1+
#2080000
0+
#2090000
b1100011 9"
b10001 o
1+
#2100000
0+
#2110000
b10010 o
b1100100 9"
1+
#2120000
0+
#2130000
b1100101 9"
b10011 o
1+
#2140000
0+
#2150000
1]
b10100 o
b1100110 9"
1+
#2160000
0+
#2170000
0\
b1100111 9"
b10 n
1+
#2180000
0+
#2190000
b111111 *
b111111 C
b111111 z
b111111 )
b111111 B
b111111 {
b111111 (
b111111 A
b111111 |
0]
b0 o
b0 ;
b0 i
b0 p
b0 }
b1101000 9"
1+
#2200000
0+
#2210000
b1101001 9"
1+
#2220000
0+
#2230000
b1101010 9"
1+
#2240000
0+
#2250000
b1101011 9"
1+
#2260000
0+
#2270000
b1101100 9"
1+
#2280000
0+
#2290000
b1101101 9"
1+
#2300000
0+
#2310000
b1101110 9"
1+
#2320000
0+
#2330000
b1101111 9"
1+
#2340000
0+
#2350000
b1110000 9"
1+
#2360000
0+
#2370000
b1110001 9"
1+
#2380000
0+
#2390000
b1110010 9"
1+
#2400000
0+
#2410000
b1110011 9"
1+
#2420000
0+
#2430000
b1110100 9"
1+
#2440000
0+
#2450000
b1110101 9"
1+
#2460000
0U
b10100101 [
0+
b1101 ,
b1101 0
b10100101 -
b10100101 1
b10100101 ?"
#2470000
0X
b1110110 9"
1+
#2480000
0+
#2490000
b1110111 9"
0Y
1+
#2500000
1U
0+
b1111 ,
b1111 0
#2510000
19
1X
0:
b0 Z
b1111000 9"
1+
#2520000
0+
#2530000
09
b1111001 9"
b11 n
14
0W
1Y
1+
#2540000
0+
#2550000
b1 N
1:
b0 Z
b1111010 9"
1+
#2560000
0+
#2570000
b1111011 9"
1W
b10 N
13
1+
#2580000
0+
#2590000
04
b100 n
b1111100 9"
1+
#2600000
0+
#2610000
b101011 *
b101011 C
b101011 z
b1100 )
b1100 B
b1100 {
b1000000 (
b1000000 A
b1000000 |
b1 $
b1 ?
b0 #
b0 >
b1111101 9"
b1 ;
b1 i
b1 p
b1 }
1j
0k
b0 N
03
1+
#2620000
0+
#2630000
b1111110 9"
1+
#2640000
0+
#2650000
b1111111 9"
1+
#2660000
0+
#2670000
b10000000 9"
1+
#2680000
0+
#2690000
b10000001 9"
1+
#2700000
0U
b0 [
0+
b1101 ,
b1101 0
b0 -
b0 1
b0 ?"
b100 ="
0<"
1;"
#2710000
0X
b10000010 9"
1+
#2720000
0+
#2730000
b10000011 9"
0Y
1+
#2740000
1U
0+
b1111 ,
b1111 0
#2750000
19
1X
0:
b0 Z
b10000100 9"
1+
#2760000
0+
#2770000
09
b10000101 9"
b10 n
0W
1Y
1+
#2780000
0+
#2790000
b111111 *
b111111 C
b111111 z
b111111 )
b111111 B
b111111 {
b111111 (
b111111 A
b111111 |
b0 $
b0 ?
b1 #
b1 >
1:
b0 Z
b0 ;
b0 i
b0 p
b0 }
0j
1k
b10000110 9"
1+
#2800000
0+
#2810000
b10000111 9"
1W
1+
#2820000
0+
#2830000
b10001000 9"
1+
#2840000
0+
#2850000
b10001001 9"
1+
#2860000
0+
#2870000
b10001010 9"
1+
#2880000
0+
#2890000
b10001011 9"
1+
#2900000
0+
#2910000
b10001100 9"
1+
#2920000
0+
#2930000
b10001101 9"
1+
#2940000
0U
b10011001 [
0+
b1101 ,
b1101 0
b10011001 -
b10011001 1
b10011001 ?"
#2950000
0X
b10001110 9"
1+
#2960000
0+
#2970000
b10001111 9"
0Y
1+
#2980000
1U
0+
b1111 ,
b1111 0
#2990000
19
1X
0:
b0 Z
b10010000 9"
1+
#3000000
0+
#3010000
09
b10010001 9"
b11 n
14
0W
1Y
1+
#3020000
0+
#3030000
b1 N
1:
b0 Z
b10010010 9"
1+
#3040000
0+
#3050000
b10010011 9"
1W
b10 N
13
1+
#3060000
0+
#3070000
1\
04
b101 n
b10010100 9"
1+
#3080000
0+
#3090000
b101111 *
b101111 C
b101111 z
b101111 )
b101111 B
b101111 {
b110 (
b110 A
b110 |
b10010101 9"
b10 ;
b10 i
b10 p
b10 }
b1 o
b0 N
03
1+
#3100000
0+
#3110000
b10 o
b10010110 9"
1+
#3120000
0+
#3130000
b10010111 9"
b11 o
1+
#3140000
0+
#3150000
b100 o
b10011000 9"
1+
#3160000
0+
#3170000
b10011001 9"
b101 o
1+
#3180000
0+
b110011 ="
1<"
0;"
#3190000
b110 o
b10011010 9"
1+
#3200000
0+
#3210000
b10011011 9"
b111 o
1+
#3220000
0+
#3230000
b1000 o
b10011100 9"
1+
#3240000
0+
#3250000
b10011101 9"
b1001 o
1+
#3260000
0+
#3270000
b1010 o
b10011110 9"
1+
#3280000
0+
#3290000
b10011111 9"
b1011 o
1+
#3300000
0+
#3310000
b1100 o
b10100000 9"
1+
#3320000
0+
#3330000
b10100001 9"
b1101 o
1+
#3340000
0+
#3350000
b1110 o
b10100010 9"
1+
#3360000
0+
#3370000
b10100011 9"
b1111 o
1+
#3380000
0+
#3390000
b10000 o
b10100100 9"
1+
#3400000
0+
#3410000
b10100101 9"
b10001 o
1+
#3420000
0+
#3430000
b10010 o
b10100110 9"
1+
#3440000
0+
#3450000
b10100111 9"
b10011 o
1+
#3460000
0+
#3470000
1]
b10100 o
b10101000 9"
1+
#3480000
0+
#3490000
0\
b10101001 9"
b10 n
1+
#3500000
0+
#3510000
b111111 *
b111111 C
b111111 z
b111111 )
b111111 B
b111111 {
b111111 (
b111111 A
b111111 |
0]
b0 o
b0 ;
b0 i
b0 p
b0 }
b10101010 9"
1+
#3520000
0+
#3530000
b10101011 9"
1+
#3540000
0+
#3550000
b10101100 9"
1+
#3560000
0+
#3570000
b10101101 9"
1+
#3580000
0+
#3590000
b10101110 9"
1+
#3600000
0+
#3610000
b10101111 9"
1+
#3620000
0+
#3630000
b10110000 9"
1+
#3640000
0+
#3650000
b10110001 9"
1+
#3660000
0+
#3670000
b10110010 9"
1+
#3680000
0+
#3690000
b10110011 9"
1+
#3700000
0+
#3710000
b10110100 9"
1+
#3720000
0+
#3730000
b10110101 9"
1+
#3740000
0+
#3750000
b10110110 9"
1+
#3760000
0+
#3770000
b10110111 9"
1+
#3780000
0U
b10001000 [
0+
b1101 ,
b1101 0
b10001000 -
b10001000 1
b10001000 ?"
#3790000
0X
b10111000 9"
1+
#3800000
0+
#3810000
b10111001 9"
0Y
1+
#3820000
1U
0+
b1111 ,
b1111 0
#3830000
19
1X
0:
b0 Z
b10111010 9"
1+
#3840000
0+
#3850000
09
b10111011 9"
b11 n
14
0W
1Y
1+
#3860000
0+
#3870000
b1 N
1:
b0 Z
b10111100 9"
1+
#3880000
0+
#3890000
b10111101 9"
1W
b10 N
13
1+
#3900000
0+
#3910000
1\
04
b101 n
b10111110 9"
1+
#3920000
0+
#3930000
b101111 *
b101111 C
b101111 z
b101111 )
b101111 B
b101111 {
b110 (
b110 A
b110 |
b10111111 9"
b10 ;
b10 i
b10 p
b10 }
b1 o
b0 N
03
1+
#3940000
0+
#3950000
b10 o
b11000000 9"
1+
#3960000
0+
#3970000
b11000001 9"
b11 o
1+
#3980000
0+
#3990000
b100 o
b11000010 9"
1+
#4000000
0+
#4010000
b11000011 9"
b101 o
1+
#4020000
0+
b110100 ="
#4030000
b110 o
b11000100 9"
1+
#4040000
0+
#4050000
b11000101 9"
b111 o
1+
#4060000
0+
#4070000
b1000 o
b11000110 9"
1+
#4080000
0+
#4090000
b11000111 9"
b1001 o
1+
#4100000
0+
#4110000
b1010 o
b11001000 9"
1+
#4120000
0+
#4130000
b11001001 9"
b1011 o
1+
#4140000
0+
#4150000
b1100 o
b11001010 9"
1+
#4160000
0+
#4170000
b11001011 9"
b1101 o
1+
#4180000
0+
#4190000
b1110 o
b11001100 9"
1+
#4200000
0+
#4210000
b11001101 9"
b1111 o
1+
#4220000
0+
#4230000
b10000 o
b11001110 9"
1+
#4240000
0+
#4250000
b11001111 9"
b10001 o
1+
#4260000
0+
#4270000
b10010 o
b11010000 9"
1+
#4280000
0+
#4290000
b11010001 9"
b10011 o
1+
#4300000
0+
#4310000
1]
b10100 o
b11010010 9"
1+
#4320000
0+
#4330000
0\
b11010011 9"
b10 n
1+
#4340000
0+
#4350000
b111111 *
b111111 C
b111111 z
b111111 )
b111111 B
b111111 {
b111111 (
b111111 A
b111111 |
0]
b0 o
b0 ;
b0 i
b0 p
b0 }
b11010100 9"
1+
#4360000
0+
#4370000
b11010101 9"
1+
#4380000
0+
#4390000
b11010110 9"
1+
#4400000
0+
#4410000
b11010111 9"
1+
#4420000
0+
#4430000
b11011000 9"
1+
#4440000
0+
#4450000
b11011001 9"
1+
#4460000
0+
#4470000
b11011010 9"
1+
#4480000
0+
#4490000
b11011011 9"
1+
#4500000
0+
#4510000
b11011100 9"
1+
#4520000
0+
#4530000
b11011101 9"
1+
#4540000
0+
#4550000
b11011110 9"
1+
#4560000
0+
#4570000
b11011111 9"
1+
#4580000
0+
#4590000
b11100000 9"
1+
#4600000
0+
#4610000
b11100001 9"
1+
#4620000
0U
b10100101 [
0+
b1101 ,
b1101 0
b10100101 -
b10100101 1
b10100101 ?"
#4630000
0X
b11100010 9"
1+
#4640000
0+
#4650000
b11100011 9"
0Y
1+
#4660000
1U
0+
b1111 ,
b1111 0
#4670000
19
1X
0:
b0 Z
b11100100 9"
1+
#4680000
0+
#4690000
09
b11100101 9"
b11 n
14
0W
1Y
1+
#4700000
0+
#4710000
b1 N
1:
b0 Z
b11100110 9"
1+
#4720000
0+
#4730000
b11100111 9"
1W
b10 N
13
1+
#4740000
0+
#4750000
04
b100 n
b11101000 9"
1+
#4760000
0+
#4770000
b101011 *
b101011 C
b101011 z
b1100 )
b1100 B
b1100 {
b1000000 (
b1000000 A
b1000000 |
b1 $
b1 ?
b0 #
b0 >
b11101001 9"
b1 ;
b1 i
b1 p
b1 }
1j
0k
b0 N
03
1+
#4780000
0+
#4790000
b11101010 9"
1+
#4800000
0+
#4810000
b11101011 9"
1+
#4820000
0+
#4830000
b11101100 9"
1+
#4840000
0+
#4850000
b11101101 9"
1+
#4860000
0+
b110 ="
0<"
1;"
#4870000
b11101110 9"
1+
#4880000
0+
#4890000
b11101111 9"
1+
#4900000
0+
#4910000
b11110000 9"
1+
#4920000
0+
#4930000
b11110001 9"
1+
#4940000
0+
#4950000
b11110010 9"
1+
#4960000
0+
#4970000
b11110011 9"
1+
#4980000
0+
#4990000
b11110100 9"
1+
#5000000
0+
#5010000
b11110101 9"
1+
#5020000
0+
#5030000
b11110110 9"
1+
#5040000
0+
#5050000
b11110111 9"
1+
#5060000
0+
#5070000
b11111000 9"
1+
#5080000
0+
#5090000
b11111001 9"
1+
#5100000
0+
#5110000
b11111010 9"
1+
#5120000
0+
#5130000
b11111011 9"
1+
#5140000
0+
#5150000
b11111100 9"
1+
#5160000
0+
#5170000
b11111101 9"
1+
#5180000
0+
#5190000
b11111110 9"
1+
#5200000
0+
#5210000
b11111111 9"
1+
#5220000
0+
#5230000
b100000000 9"
1+
#5240000
0+
#5250000
b100000001 9"
1+
#5260000
0+
#5270000
b100000010 9"
1+
#5280000
0+
#5290000
b100000011 9"
1+
#5300000
0+
#5310000
b100000100 9"
1+
#5320000
0+
#5330000
b100000101 9"
1+
#5340000
0+
#5350000
b100000110 9"
1+
