waveform.vcd
$date
	Sat Jul 04 01:01:49 2026
$end
$version
	Icarus Verilog
$end
$timescale
	1ps
$end
$scope module tb_digital_safe_lock $end
$var wire 1 ! LCD_ON $end
$var wire 1 " LCD_RW $end
$var wire 16 # SRAM_DQ [15:0] $end
$var wire 1 $ SRAM_WE_N $end
$var wire 1 % SRAM_UB_N $end
$var wire 1 & SRAM_OE_N $end
$var wire 1 ' SRAM_LB_N $end
$var wire 1 ( SRAM_CE_N $end
$var wire 19 ) SRAM_ADDR [18:0] $end
$var wire 18 * LEDR [17:0] $end
$var wire 9 + LEDG [8:0] $end
$var wire 1 , LCD_RS $end
$var wire 1 - LCD_EN $end
$var wire 8 . LCD_DATA [7:0] $end
$var wire 7 / HEX2 [6:0] $end
$var wire 7 0 HEX1 [6:0] $end
$var wire 7 1 HEX0 [6:0] $end
$var reg 1 2 CLOCK_50 $end
$var reg 4 3 KEY [3:0] $end
$var reg 18 4 SW [17:0] $end
$scope module dut $end
$var wire 1 2 CLOCK_50 $end
$var wire 4 5 KEY [3:0] $end
$var wire 1 ! LCD_ON $end
$var wire 1 " LCD_RW $end
$var wire 16 6 SRAM_DQ [15:0] $end
$var wire 18 7 SW [17:0] $end
$var wire 1 8 sram_wr_en $end
$var wire 1 9 sram_ready $end
$var wire 1 : sram_rd_en $end
$var wire 16 ; sram_data_to_ctrl [15:0] $end
$var wire 16 < sram_data_from_ctrl [15:0] $end
$var wire 19 = sram_addr_internal [18:0] $end
$var wire 1 > rst_n $end
$var wire 1 ? enter_tick $end
$var wire 1 @ enter_btn_state $end
$var wire 3 A display_state [2:0] $end
$var wire 1 B change_tick $end
$var wire 1 C change_btn_state $end
$var wire 1 $ SRAM_WE_N $end
$var wire 1 % SRAM_UB_N $end
$var wire 1 & SRAM_OE_N $end
$var wire 1 ' SRAM_LB_N $end
$var wire 1 ( SRAM_CE_N $end
$var wire 19 D SRAM_ADDR [18:0] $end
$var wire 18 E LEDR [17:0] $end
$var wire 9 F LEDG [8:0] $end
$var wire 1 , LCD_RS $end
$var wire 1 - LCD_EN $end
$var wire 8 G LCD_DATA [7:0] $end
$var wire 7 H HEX2 [6:0] $end
$var wire 7 I HEX1 [6:0] $end
$var wire 7 J HEX0 [6:0] $end
$var parameter 20 K DB_DELAY $end
$var parameter 32 L SRAM_WAIT_CYCLES $end
$var parameter 28 M TIMER_CYCLES $end
$scope module db_change $end
$var wire 1 N i_btn $end
$var wire 1 2 i_clk $end
$var wire 1 > i_rst_n $end
$var wire 1 B o_btn_tick $end
$var parameter 20 O DELAY_CYCLES $end
$var reg 1 P btn_state_prev $end
$var reg 1 Q btn_sync_0 $end
$var reg 1 R btn_sync_1 $end
$var reg 20 S counter [19:0] $end
$var reg 1 C o_btn_state $end
$upscope $end
$scope module db_enter $end
$var wire 1 T i_btn $end
$var wire 1 2 i_clk $end
$var wire 1 > i_rst_n $end
$var wire 1 ? o_btn_tick $end
$var parameter 20 U DELAY_CYCLES $end
$var reg 1 V btn_state_prev $end
$var reg 1 W btn_sync_0 $end
$var reg 1 X btn_sync_1 $end
$var reg 20 Y counter [19:0] $end
$var reg 1 @ o_btn_state $end
$upscope $end
$scope module fsm_inst $end
$var wire 1 B i_change_tick $end
$var wire 1 2 i_clk $end
$var wire 1 ? i_enter_tick $end
$var wire 1 > i_rst_n $end
$var wire 8 Z i_sw [7:0] $end
$var wire 1 [ timer_en $end
$var wire 1 \ timer_done $end
$var wire 1 9 i_sram_ready $end
$var wire 16 ] i_sram_data [15:0] $end
$var parameter 4 ^ S_CHG_DONE $end
$var parameter 4 _ S_ERR $end
$var parameter 4 ` S_IDLE $end
$var parameter 4 a S_INIT_WAIT $end
$var parameter 4 b S_INIT_WR $end
$var parameter 4 c S_READ_CHECK $end
$var parameter 4 d S_UNLOCKED $end
$var parameter 4 e S_WRITE_CHG $end
$var parameter 28 f TIMER_CYCLES $end
$var reg 3 g o_display_state [2:0] $end
$var reg 1 h o_ledg $end
$var reg 1 i o_ledr $end
$var reg 19 j o_sram_addr [18:0] $end
$var reg 16 k o_sram_data_out [15:0] $end
$var reg 1 : o_sram_rd_en $end
$var reg 1 8 o_sram_wr_en $end
$var reg 4 l state [3:0] $end
$var reg 28 m timer [27:0] $end
$upscope $end
$scope module hex_inst $end
$var wire 3 n i_state [2:0] $end
$var parameter 7 o CHAR_C $end
$var parameter 7 p CHAR_DASH $end
$var parameter 7 q CHAR_E $end
$var parameter 7 r CHAR_O $end
$var parameter 7 s CHAR_P $end
$var parameter 7 t CHAR_g $end
$var parameter 7 u CHAR_h $end
$var parameter 7 v CHAR_n $end
$var parameter 7 w CHAR_r $end
$var reg 7 x o_hex0 [6:0] $end
$var reg 7 y o_hex1 [6:0] $end
$var reg 7 z o_hex2 [6:0] $end
$upscope $end
$scope module lcd_inst $end
$var wire 1 2 i_clk $end
$var wire 1 > i_rst_n $end
$var wire 3 { i_state [2:0] $end
$var wire 1 " o_lcd_rw $end
$var parameter 32 | CLK_FREQ $end
$var parameter 32 } DELAY_20MS $end
$var parameter 32 ~ DELAY_2MS $end
$var parameter 32 !" DELAY_50US $end
$var parameter 3 "" SEQ_DELAY $end
$var parameter 3 #" SEQ_DONE $end
$var parameter 3 $" SEQ_EN_HI $end
$var parameter 3 %" SEQ_EN_LO $end
$var parameter 3 &" SEQ_SETUP $end
$var parameter 4 '" S_INIT_1 $end
$var parameter 4 (" S_INIT_2 $end
$var parameter 4 )" S_INIT_3 $end
$var parameter 4 *" S_INIT_4 $end
$var parameter 4 +" S_LINE1 $end
$var parameter 4 ," S_LINE2 $end
$var parameter 4 -" S_PRINT1 $end
$var parameter 4 ." S_PRINT2 $end
$var parameter 4 /" S_PWR_ON $end
$var parameter 4 0" S_WAIT $end
$var reg 5 1" char_index [4:0] $end
$var reg 3 2" current_fsm_state [2:0] $end
$var reg 4 3" next_state_after_delay [3:0] $end
$var reg 8 4" o_lcd_data [7:0] $end
$var reg 1 - o_lcd_en $end
$var reg 1 , o_lcd_rs $end
$var reg 3 5" seq [2:0] $end
$var reg 4 6" state [3:0] $end
$var reg 25 7" timer [24:0] $end
$var integer 32 8" current_delay [31:0] $end
$upscope $end
$scope module sram_ctrl $end
$var wire 16 9" SRAM_DQ [15:0] $end
$var wire 19 :" i_addr [18:0] $end
$var wire 1 2 i_clk $end
$var wire 16 ;" i_data [15:0] $end
$var wire 1 : i_rd_en $end
$var wire 1 > i_rst_n $end
$var wire 1 8 i_wr_en $end
$var parameter 3 <" S_DONE $end
$var parameter 3 =" S_IDLE $end
$var parameter 3 >" S_READ_DONE $end
$var parameter 3 ?" S_READ_WAIT $end
$var parameter 3 @" S_WRITE_WAIT $end
$var parameter 32 A" WAIT_CYCLES $end
$var reg 19 B" SRAM_ADDR [18:0] $end
$var reg 1 ( SRAM_CE_N $end
$var reg 1 ' SRAM_LB_N $end
$var reg 1 & SRAM_OE_N $end
$var reg 1 % SRAM_UB_N $end
$var reg 1 $ SRAM_WE_N $end
$var reg 1 C" dq_drive $end
$var reg 16 D" dq_out [15:0] $end
$var reg 16 E" o_data [15:0] $end
$var reg 1 9 o_ready $end
$var reg 3 F" state [2:0] $end
$var reg 8 G" wait_cnt [7:0] $end
$upscope $end
$upscope $end
$scope task check_result $end
$var reg 1 H" exp_ledg $end
$var reg 1 I" exp_ledr $end
$var reg 8 J" test_id [7:0] $end
$upscope $end
$scope task enter_password $end
$var reg 2 K" btn_type [1:0] $end
$var reg 8 L" pass [7:0] $end
$upscope $end
$scope task reset_system $end
$upscope $end
$scope task wait_for_display_timer $end
$upscope $end
$upscope $end
$enddefinitions $end
$comment Show the parameter values. $end
$dumpall
b1 A"
b11 @"
b1 ?"
b10 >"
b0 ="
b100 <"
b1001 0"
b0 /"
b1000 ."
b110 -"
b111 ,"
b101 +"
b100 *"
b11 )"
b10 ("
b1 '"
b0 &"
b10 %"
b1 $"
b100 #"
b11 ""
b100111000100 !"
b11000011010100000 ~
b11110100001001000000 }
b10111110101111000010000000 |
b101111 w
b101011 v
b1011 u
b10000 t
b1100 s
b1000000 r
b110 q
b111111 p
b1000110 o
b10100 f
b110 e
b100 d
b11 c
b0 b
b1 a
b10 `
b101 _
b111 ^
b1 U
b1 O
b10100 M
b1 L
b1 K
$end
#0
$dumpvars
bx L"
bx K"
bx J"
xI"
xH"
b0 G"
b0 F"
b0 E"
b0 D"
0C"
b0 B"
b0 ;"
b0 :"
bz 9"
bx 8"
b0 7"
b0 6"
b0 5"
b0 4"
bx 3"
b0 2"
b0 1"
b0 {
b111111 z
b111111 y
b111111 x
b0 n
b0 m
b0 l
b0 k
b0 j
1i
0h
b0 g
b0 ]
0\
0[
b0 Z
b0 Y
1X
1W
1V
1T
b0 S
1R
1Q
1P
1N
b111111 J
b111111 I
b111111 H
b0 G
b0 F
b1 E
b0 D
1C
0B
b0 A
1@
0?
0>
b0 =
b0 <
b0 ;
0:
09
08
b0 7
bz 6
b1110 5
b0 4
b1110 3
02
b111111 1
b111111 0
b111111 /
b0 .
0-
0,
b0 +
b1 *
b0 )
1(
1'
1&
1%
1$
bz #
0"
1!
$end
#10000
12
#20000
02
#30000
12
#40000
02
#50000
12
#60000
02
#70000
12
#80000
02
#90000
12
#100000
1>
02
b1111 3
b1111 5
#110000
b1 l
18
b11 5"
b1 3"
b11110100001001000000 8"
12
#120000
02
#130000
b0 #
b0 6
b0 9"
b1 7"
b11 F"
0%
0'
0$
0(
1C"
12
#140000
02
#150000
b1 G"
b10 7"
12
#160000
02
#170000
bz #
bz 6
bz 9"
b11 7"
b100 F"
19
0C"
1%
1'
1(
1$
12
#180000
02
#190000
b10 l
08
b100 7"
12
#200000
02
#210000
b101 7"
b0 F"
09
12
#220000
02
#230000
b0 G"
b110 7"
12
#240000
02
#250000
b111 7"
12
#260000
02
#270000
b1000 7"
12
#280000
02
#290000
b1001 7"
12
#300000
0T
02
b1101 3
b1101 5
b1 K"
b0 L"
#310000
0W
b1010 7"
12
#320000
02
#330000
b1011 7"
0X
12
#340000
1T
02
b1111 3
b1111 5
#350000
1?
1W
0@
b0 Y
b1100 7"
12
#360000
02
#370000
0?
b1101 7"
b11 l
1:
0V
1X
12
#380000
02
#390000
b0 #
b0 6
b0 9"
1@
b0 Y
b1 F"
0%
0'
0&
0(
b1110 7"
12
#400000
02
#410000
b1111 7"
b1 G"
1V
12
#420000
02
#430000
b10 F"
b10000 7"
12
#440000
02
#450000
bz #
bz 6
bz 9"
b10001 7"
b100 F"
19
1%
1'
1&
1(
12
#460000
02
#470000
0:
b100 l
b10010 7"
12
#480000
02
#490000
b101011 1
b101011 J
b101011 x
b1100 0
b1100 I
b1100 y
b1000000 /
b1000000 H
b1000000 z
b1 +
b1 F
b0 *
b0 E
b10011 7"
b1 A
b1 g
b1 n
b1 {
1h
0i
b0 F"
09
12
#500000
02
#510000
b0 G"
b10100 7"
12
#520000
02
#530000
b10101 7"
12
#540000
0N
b10100101 Z
02
b1011 3
b1011 5
b10100101 4
b10100101 7
b10 K"
b10100101 L"
b1 J"
0I"
1H"
#550000
0Q
b10110 7"
12
#560000
02
#570000
b10111 7"
0R
12
#580000
1N
02
b1111 3
b1111 5
#590000
1B
1Q
0C
b0 S
b11000 7"
12
#600000
02
#610000
0B
b11001 7"
b110 l
b10100101 ;
b10100101 k
b10100101 ;"
18
0P
1R
12
#620000
02
#630000
b10100101 #
b10100101 6
b10100101 9"
1C
b0 S
b11 F"
0%
0'
0$
0(
1C"
b10100101 D"
b11010 7"
12
#640000
02
#650000
b11011 7"
b1 G"
1P
12
#660000
02
#670000
bz #
bz 6
bz 9"
b100 F"
19
0C"
1%
1'
1(
1$
b11100 7"
12
#680000
02
#690000
1[
b11101 7"
b111 l
08
12
#700000
02
#710000
b10000 1
b10000 J
b10000 x
b1011 0
b1011 I
b1011 y
b1000110 /
b1000110 H
b1000110 z
b0 F"
09
b1 m
b11 A
b11 g
b11 n
b11 {
b11110 7"
12
#720000
02
#730000
b11111 7"
b10 m
b0 G"
12
#740000
02
#750000
b11 m
b100000 7"
12
#760000
02
#770000
b100001 7"
b100 m
12
#780000
02
#790000
b101 m
b100010 7"
12
#800000
02
#810000
b100011 7"
b110 m
12
#820000
02
#830000
b111 m
b100100 7"
12
#840000
02
#850000
b100101 7"
b1000 m
12
#860000
02
#870000
b1001 m
b100110 7"
12
#880000
02
#890000
b100111 7"
b1010 m
12
#900000
02
#910000
b1011 m
b101000 7"
12
#920000
02
#930000
b101001 7"
b1100 m
12
#940000
02
#950000
b1101 m
b101010 7"
12
#960000
02
#970000
b101011 7"
b1110 m
12
#980000
02
#990000
b1111 m
b101100 7"
12
#1000000
02
#1010000
b101101 7"
b10000 m
12
#1020000
02
#1030000
b10001 m
b101110 7"
12
#1040000
02
#1050000
b101111 7"
b10010 m
12
#1060000
02
#1070000
b10011 m
b110000 7"
12
#1080000
02
#1090000
b110001 7"
1\
b10100 m
12
#1100000
02
#1110000
0[
b100 l
b110010 7"
12
#1120000
02
#1130000
b101011 1
b101011 J
b101011 x
b1100 0
b1100 I
b1100 y
b1000000 /
b1000000 H
b1000000 z
b110011 7"
b1 A
b1 g
b1 n
b1 {
0\
b0 m
12
#1140000
02
#1150000
b110100 7"
12
#1160000
02
#1170000
b110101 7"
12
#1180000
02
#1190000
b110110 7"
12
#1200000
02
#1210000
b110111 7"
12
#1220000
02
#1230000
b111000 7"
12
#1240000
02
#1250000
b111001 7"
12
#1260000
02
#1270000
b111010 7"
12
#1280000
02
#1290000
b111011 7"
12
#1300000
02
#1310000
b111100 7"
12
#1320000
02
#1330000
b111101 7"
12
#1340000
02
#1350000
b111110 7"
12
#1360000
02
#1370000
b111111 7"
12
#1380000
0T
02
b1101 3
b1101 5
b1 K"
#1390000
0W
b1000000 7"
12
#1400000
02
#1410000
b1000001 7"
0X
12
#1420000
1T
02
b1111 3
b1111 5
#1430000
1?
1W
0@
b0 Y
b1000010 7"
12
#1440000
02
#1450000
0?
b1000011 7"
b10 l
0V
1X
12
#1460000
02
#1470000
b111111 1
b111111 J
b111111 x
b111111 0
b111111 I
b111111 y
b111111 /
b111111 H
b111111 z
b0 +
b0 F
b1 *
b1 E
1@
b0 Y
b0 A
b0 g
b0 n
b0 {
0h
1i
b1000100 7"
12
#1480000
02
#1490000
b1000101 7"
1V
12
#1500000
02
#1510000
b1000110 7"
12
#1520000
02
#1530000
b1000111 7"
12
#1540000
02
#1550000
b1001000 7"
12
#1560000
02
#1570000
b1001001 7"
12
#1580000
02
#1590000
b1001010 7"
12
#1600000
02
#1610000
b1001011 7"
12
#1620000
0T
b10001 Z
02
b1101 3
b1101 5
b10001 4
b10001 7
b10001 L"
#1630000
0W
b1001100 7"
12
#1640000
02
#1650000
b1001101 7"
0X
12
#1660000
1T
02
b1111 3
b1111 5
#1670000
1?
1W
0@
b0 Y
b1001110 7"
12
#1680000
02
#1690000
0?
b1001111 7"
b11 l
1:
0V
1X
12
#1700000
02
#1710000
b10100101 #
b10100101 6
b10100101 9"
1@
b0 Y
b1 F"
0%
0'
0&
0(
b1010000 7"
12
#1720000
02
#1730000
b1010001 7"
b1 G"
1V
12
#1740000
02
#1750000
b10 F"
b10100101 <
b10100101 ]
b10100101 E"
b1010010 7"
12
#1760000
02
#1770000
bz #
bz 6
bz 9"
b1010011 7"
b100 F"
19
1%
1'
1&
1(
12
#1780000
02
#1790000
1[
0:
b101 l
b1010100 7"
12
#1800000
02
#1810000
b101111 1
b101111 J
b101111 x
b101111 0
b101111 I
b101111 y
b110 /
b110 H
b110 z
b1010101 7"
b10 A
b10 g
b10 n
b10 {
b1 m
b0 F"
09
12
#1820000
02
#1830000
b0 G"
b10 m
b1010110 7"
12
#1840000
02
#1850000
b1010111 7"
b11 m
12
#1860000
02
b11 J"
1I"
0H"
#1870000
b100 m
b1011000 7"
12
#1880000
02
#1890000
b1011001 7"
b101 m
12
#1900000
02
#1910000
b110 m
b1011010 7"
12
#1920000
02
#1930000
b1011011 7"
b111 m
12
#1940000
02
#1950000
b1000 m
b1011100 7"
12
#1960000
02
#1970000
b1011101 7"
b1001 m
12
#1980000
02
#1990000
b1010 m
b1011110 7"
12
#2000000
02
#2010000
b1011111 7"
b1011 m
12
#2020000
02
#2030000
b1100 m
b1100000 7"
12
#2040000
02
#2050000
b1100001 7"
b1101 m
12
#2060000
02
#2070000
b1110 m
b1100010 7"
12
#2080000
02
#2090000
b1100011 7"
b1111 m
12
#2100000
02
#2110000
b10000 m
b1100100 7"
12
#2120000
02
#2130000
b1100101 7"
b10001 m
12
#2140000
02
#2150000
b10010 m
b1100110 7"
12
#2160000
02
#2170000
b1100111 7"
b10011 m
12
#2180000
02
#2190000
1\
b10100 m
b1101000 7"
12
#2200000
02
#2210000
0[
b1101001 7"
b10 l
12
#2220000
02
#2230000
b111111 1
b111111 J
b111111 x
b111111 0
b111111 I
b111111 y
b111111 /
b111111 H
b111111 z
0\
b0 m
b0 A
b0 g
b0 n
b0 {
b1101010 7"
12
#2240000
02
#2250000
b1101011 7"
12
#2260000
02
#2270000
b1101100 7"
12
#2280000
02
#2290000
b1101101 7"
12
#2300000
02
#2310000
b1101110 7"
12
#2320000
02
#2330000
b1101111 7"
12
#2340000
02
#2350000
b1110000 7"
12
#2360000
02
#2370000
b1110001 7"
12
#2380000
02
#2390000
b1110010 7"
12
#2400000
02
#2410000
b1110011 7"
12
#2420000
02
#2430000
b1110100 7"
12
#2440000
02
#2450000
b1110101 7"
12
#2460000
0T
b10100101 Z
02
b1101 3
b1101 5
b10100101 4
b10100101 7
b10100101 L"
#2470000
0W
b1110110 7"
12
#2480000
02
#2490000
b1110111 7"
0X
12
#2500000
1T
02
b1111 3
b1111 5
#2510000
1?
1W
0@
b0 Y
b1111000 7"
12
#2520000
02
#2530000
0?
b1111001 7"
b11 l
1:
0V
1X
12
#2540000
02
#2550000
b10100101 #
b10100101 6
b10100101 9"
1@
b0 Y
b1 F"
0%
0'
0&
0(
b1111010 7"
12
#2560000
02
#2570000
b1111011 7"
b1 G"
1V
12
#2580000
02
#2590000
b10 F"
b1111100 7"
12
#2600000
02
#2610000
bz #
bz 6
bz 9"
b1111101 7"
b100 F"
19
1%
1'
1&
1(
12
#2620000
02
#2630000
0:
b100 l
b1111110 7"
12
#2640000
02
#2650000
b101011 1
b101011 J
b101011 x
b1100 0
b1100 I
b1100 y
b1000000 /
b1000000 H
b1000000 z
b1 +
b1 F
b0 *
b0 E
b1111111 7"
b1 A
b1 g
b1 n
b1 {
1h
0i
b0 F"
09
12
#2660000
02
#2670000
b0 G"
b10000000 7"
12
#2680000
02
#2690000
b10000001 7"
12
#2700000
0T
b0 Z
02
b1101 3
b1101 5
b0 4
b0 7
b0 L"
b100 J"
0I"
1H"
#2710000
0W
b10000010 7"
12
#2720000
02
#2730000
b10000011 7"
0X
12
#2740000
1T
02
b1111 3
b1111 5
#2750000
1?
1W
0@
b0 Y
b10000100 7"
12
#2760000
02
#2770000
0?
b10000101 7"
b10 l
0V
1X
12
#2780000
02
#2790000
b111111 1
b111111 J
b111111 x
b111111 0
b111111 I
b111111 y
b111111 /
b111111 H
b111111 z
b0 +
b0 F
b1 *
b1 E
1@
b0 Y
b0 A
b0 g
b0 n
b0 {
0h
1i
b10000110 7"
12
#2800000
02
#2810000
b10000111 7"
1V
12
#2820000
02
#2830000
b10001000 7"
12
#2840000
02
#2850000
b10001001 7"
12
#2860000
02
#2870000
b10001010 7"
12
#2880000
02
#2890000
b10001011 7"
12
#2900000
02
#2910000
b10001100 7"
12
#2920000
02
#2930000
b10001101 7"
12
#2940000
0T
b10011001 Z
02
b1101 3
b1101 5
b10011001 4
b10011001 7
b10011001 L"
#2950000
0W
b10001110 7"
12
#2960000
02
#2970000
b10001111 7"
0X
12
#2980000
1T
02
b1111 3
b1111 5
#2990000
1?
1W
0@
b0 Y
b10010000 7"
12
#3000000
02
#3010000
0?
b10010001 7"
b11 l
1:
0V
1X
12
#3020000
02
#3030000
b10100101 #
b10100101 6
b10100101 9"
1@
b0 Y
b1 F"
0%
0'
0&
0(
b10010010 7"
12
#3040000
02
#3050000
b10010011 7"
b1 G"
1V
12
#3060000
02
#3070000
b10 F"
b10010100 7"
12
#3080000
02
#3090000
bz #
bz 6
bz 9"
b10010101 7"
b100 F"
19
1%
1'
1&
1(
12
#3100000
02
#3110000
1[
0:
b101 l
b10010110 7"
12
#3120000
02
#3130000
b101111 1
b101111 J
b101111 x
b101111 0
b101111 I
b101111 y
b110 /
b110 H
b110 z
b10010111 7"
b10 A
b10 g
b10 n
b10 {
b1 m
b0 F"
09
12
#3140000
02
#3150000
b0 G"
b10 m
b10011000 7"
12
#3160000
02
#3170000
b10011001 7"
b11 m
12
#3180000
02
b110011 J"
1I"
0H"
#3190000
b100 m
b10011010 7"
12
#3200000
02
#3210000
b10011011 7"
b101 m
12
#3220000
02
#3230000
b110 m
b10011100 7"
12
#3240000
02
#3250000
b10011101 7"
b111 m
12
#3260000
02
#3270000
b1000 m
b10011110 7"
12
#3280000
02
#3290000
b10011111 7"
b1001 m
12
#3300000
02
#3310000
b1010 m
b10100000 7"
12
#3320000
02
#3330000
b10100001 7"
b1011 m
12
#3340000
02
#3350000
b1100 m
b10100010 7"
12
#3360000
02
#3370000
b10100011 7"
b1101 m
12
#3380000
02
#3390000
b1110 m
b10100100 7"
12
#3400000
02
#3410000
b10100101 7"
b1111 m
12
#3420000
02
#3430000
b10000 m
b10100110 7"
12
#3440000
02
#3450000
b10100111 7"
b10001 m
12
#3460000
02
#3470000
b10010 m
b10101000 7"
12
#3480000
02
#3490000
b10101001 7"
b10011 m
12
#3500000
02
#3510000
1\
b10100 m
b10101010 7"
12
#3520000
02
#3530000
0[
b10101011 7"
b10 l
12
#3540000
02
#3550000
b111111 1
b111111 J
b111111 x
b111111 0
b111111 I
b111111 y
b111111 /
b111111 H
b111111 z
0\
b0 m
b0 A
b0 g
b0 n
b0 {
b10101100 7"
12
#3560000
02
#3570000
b10101101 7"
12
#3580000
02
#3590000
b10101110 7"
12
#3600000
02
#3610000
b10101111 7"
12
#3620000
02
#3630000
b10110000 7"
12
#3640000
02
#3650000
b10110001 7"
12
#3660000
02
#3670000
b10110010 7"
12
#3680000
02
#3690000
b10110011 7"
12
#3700000
02
#3710000
b10110100 7"
12
#3720000
02
#3730000
b10110101 7"
12
#3740000
02
#3750000
b10110110 7"
12
#3760000
02
#3770000
b10110111 7"
12
#3780000
0T
b10001000 Z
02
b1101 3
b1101 5
b10001000 4
b10001000 7
b10001000 L"
#3790000
0W
b10111000 7"
12
#3800000
02
#3810000
b10111001 7"
0X
12
#3820000
1T
02
b1111 3
b1111 5
#3830000
1?
1W
0@
b0 Y
b10111010 7"
12
#3840000
02
#3850000
0?
b10111011 7"
b11 l
1:
0V
1X
12
#3860000
02
#3870000
b10100101 #
b10100101 6
b10100101 9"
1@
b0 Y
b1 F"
0%
0'
0&
0(
b10111100 7"
12
#3880000
02
#3890000
b10111101 7"
b1 G"
1V
12
#3900000
02
#3910000
b10 F"
b10111110 7"
12
#3920000
02
#3930000
bz #
bz 6
bz 9"
b10111111 7"
b100 F"
19
1%
1'
1&
1(
12
#3940000
02
#3950000
1[
0:
b101 l
b11000000 7"
12
#3960000
02
#3970000
b101111 1
b101111 J
b101111 x
b101111 0
b101111 I
b101111 y
b110 /
b110 H
b110 z
b11000001 7"
b10 A
b10 g
b10 n
b10 {
b1 m
b0 F"
09
12
#3980000
02
#3990000
b0 G"
b10 m
b11000010 7"
12
#4000000
02
#4010000
b11000011 7"
b11 m
12
#4020000
02
b110100 J"
#4030000
b100 m
b11000100 7"
12
#4040000
02
#4050000
b11000101 7"
b101 m
12
#4060000
02
#4070000
b110 m
b11000110 7"
12
#4080000
02
#4090000
b11000111 7"
b111 m
12
#4100000
02
#4110000
b1000 m
b11001000 7"
12
#4120000
02
#4130000
b11001001 7"
b1001 m
12
#4140000
02
#4150000
b1010 m
b11001010 7"
12
#4160000
02
#4170000
b11001011 7"
b1011 m
12
#4180000
02
#4190000
b1100 m
b11001100 7"
12
#4200000
02
#4210000
b11001101 7"
b1101 m
12
#4220000
02
#4230000
b1110 m
b11001110 7"
12
#4240000
02
#4250000
b11001111 7"
b1111 m
12
#4260000
02
#4270000
b10000 m
b11010000 7"
12
#4280000
02
#4290000
b11010001 7"
b10001 m
12
#4300000
02
#4310000
b10010 m
b11010010 7"
12
#4320000
02
#4330000
b11010011 7"
b10011 m
12
#4340000
02
#4350000
1\
b10100 m
b11010100 7"
12
#4360000
02
#4370000
0[
b11010101 7"
b10 l
12
#4380000
02
#4390000
b111111 1
b111111 J
b111111 x
b111111 0
b111111 I
b111111 y
b111111 /
b111111 H
b111111 z
0\
b0 m
b0 A
b0 g
b0 n
b0 {
b11010110 7"
12
#4400000
02
#4410000
b11010111 7"
12
#4420000
02
#4430000
b11011000 7"
12
#4440000
02
#4450000
b11011001 7"
12
#4460000
02
#4470000
b11011010 7"
12
#4480000
02
#4490000
b11011011 7"
12
#4500000
02
#4510000
b11011100 7"
12
#4520000
02
#4530000
b11011101 7"
12
#4540000
02
#4550000
b11011110 7"
12
#4560000
02
#4570000
b11011111 7"
12
#4580000
02
#4590000
b11100000 7"
12
#4600000
02
#4610000
b11100001 7"
12
#4620000
0T
b10100101 Z
02
b1101 3
b1101 5
b10100101 4
b10100101 7
b10100101 L"
#4630000
0W
b11100010 7"
12
#4640000
02
#4650000
b11100011 7"
0X
12
#4660000
1T
02
b1111 3
b1111 5
#4670000
1?
1W
0@
b0 Y
b11100100 7"
12
#4680000
02
#4690000
0?
b11100101 7"
b11 l
1:
0V
1X
12
#4700000
02
#4710000
b10100101 #
b10100101 6
b10100101 9"
1@
b0 Y
b1 F"
0%
0'
0&
0(
b11100110 7"
12
#4720000
02
#4730000
b11100111 7"
b1 G"
1V
12
#4740000
02
#4750000
b10 F"
b11101000 7"
12
#4760000
02
#4770000
bz #
bz 6
bz 9"
b11101001 7"
b100 F"
19
1%
1'
1&
1(
12
#4780000
02
#4790000
0:
b100 l
b11101010 7"
12
#4800000
02
#4810000
b101011 1
b101011 J
b101011 x
b1100 0
b1100 I
b1100 y
b1000000 /
b1000000 H
b1000000 z
b1 +
b1 F
b0 *
b0 E
b11101011 7"
b1 A
b1 g
b1 n
b1 {
1h
0i
b0 F"
09
12
#4820000
02
#4830000
b0 G"
b11101100 7"
12
#4840000
02
#4850000
b11101101 7"
12
#4860000
02
b110 J"
0I"
1H"
#4870000
b11101110 7"
12
#4880000
02
#4890000
b11101111 7"
12
#4900000
02
#4910000
b11110000 7"
12
#4920000
02
#4930000
b11110001 7"
12
#4940000
02
#4950000
b11110010 7"
12
#4960000
02
#4970000
b11110011 7"
12
#4980000
02
#4990000
b11110100 7"
12
#5000000
02
#5010000
b11110101 7"
12
#5020000
02
#5030000
b11110110 7"
12
#5040000
02
#5050000
b11110111 7"
12
#5060000
02
#5070000
b11111000 7"
12
#5080000
02
#5090000
b11111001 7"
12
#5100000
02
#5110000
b11111010 7"
12
#5120000
02
#5130000
b11111011 7"
12
#5140000
02
#5150000
b11111100 7"
12
#5160000
02
#5170000
b11111101 7"
12
#5180000
02
#5190000
b11111110 7"
12
#5200000
02
#5210000
b11111111 7"
12
#5220000
02
#5230000
b100000000 7"
12
#5240000
02
#5250000
b100000001 7"
12
#5260000
02
#5270000
b100000010 7"
12
#5280000
02
#5290000
b100000011 7"
12
#5300000
02
#5310000
b100000100 7"
12
#5320000
02
#5330000
b100000101 7"
12
#5340000
02
#5350000
b100000110 7"
12
